Data Cleaning
…
Total_cover mutation

This particular column makes sure that whatever what put into the three previous columns all add up to 100. We will go ahead and check if this column have numbers that are different that 100

#see if there are values other than 100 in the total_cover column
snowsurvey_cleaned_full %>% 
  count(Total_cover) %>% #count amount of observations in Water_cover column
  filter(Total_cover != 100) #filter by those that are not 100

# A tibble: 32 × 2
   Total_cover     n
   <chr>       <int>
 1 0            1509
 2 10            481
 3 102             1
 4 105             5
 5 108             1
 6 110            13
 7 120             1
 8 15              9
 9 20            300
10 25              4
# ℹ 22 more rows

We have a bunch of observations where the Total_cover does not equal up to 100. Let’s first mutate this column and add up the previous columns to see if our new dataframe corrected for this mistake from the mistaken observations.

#sum up the Snow_cover, Water_cover, Land_cover and replace it with the Total_cover column
snowsurvey_cleaned_full <- snowsurvey_cleaned_full %>% 
  mutate(Total_cover = rowSums(across(c(Snow_cover, Water_cover, Land_cover))), #sum using the rowSums and across function
         Total_cover = as.numeric(Total_cover)) #change the class of Total_cover to numeric

#see if there are values other than 100 in the total_cover column
snowsurvey_cleaned_full %>% 
  count(Total_cover) %>% #count amount of observations in Total_cover column
  filter(Total_cover != 100) #filter by those that are not 100

# A tibble: 32 × 2
   Total_cover     n
         <dbl> <int>
 1           0  1281
 2           3     1
 3           5    24
 4           6     1
 5           9    36
 6          10   515
 7          15    10
 8          20   313
 9          25     4
10          30   292
# ℹ 22 more rows
…
